1	486577.309	4579151.355	397.680
2	486582.594	4579157.042	397.491
3	486579.016	4579159.984	397.180
4	486576.399	4579166.928	397.061
5	486575.329	4579166.309	396.821
6	486575.533	4579164.440	396.940
7	486574.125	4579166.667	396.630
8	486574.568	4579167.324	396.971
9	486576.475	4579168.596	396.891
10	486577.253	4579169.361	396.291
11	486575.169	4579172.477	396.011
12	486574.838	4579172.217	397.011
13	486573.819	4579171.113	396.831
14	486573.142	4579168.629	396.671
15	486571.784	4579169.700	396.791
16	486569.679	4579171.006	396.800
17	486570.528	4579173.931	396.741
18	486570.767	4579175.656	397.211
19	486571.220	4579176.606	395.631
20	486566.302	4579179.194	395.681
21	486565.325	4579178.566	396.801
22	486565.762	4579176.666	396.760
23	486565.321	4579172.009	396.760
24	486564.088	4579171.504	396.920
25	486561.436	4579170.138	397.060
26	486560.140	4579168.745	397.109
27	486559.140	4579167.159	397.179
28	486556.216	4579165.814	397.029
29	486555.925	4579164.728	397.439
30	486555.856	4579162.415	397.298
31	486556.251	4579161.151	396.988
32	486552.740	4579161.337	397.038
33	486550.560	4579159.098	396.938
34	486548.425	4579157.865	397.167
35	486550.508	4579156.882	397.097
36	486552.262	4579156.690	397.038
37	486546.285	4579160.772	396.657
38	486548.222	4579163.440	396.908
39	486545.204	4579169.325	396.448
40	486546.576	4579169.927	396.988
41	486550.195	4579168.706	396.868
42	486545.887	4579172.781	396.748
43	486547.936	4579172.496	396.708
44	486548.076	4579177.098	396.479
45	486553.546	4579175.561	396.699
46	486556.196	4579174.825	396.839
47	486558.750	4579175.848	396.880
48	486559.834	4579180.624	396.620
49	486554.239	4579181.492	396.950
50	486552.125	4579180.957	396.809
51	486560.034	4579167.249	396.319
52	486576.708	4579160.496	397.130
53	486575.179	4579161.388	397.220
54	486574.079	4579160.248	397.260
55	486574.389	4579157.596	397.480
56	486573.160	4579158.449	397.320
57	486571.881	4579157.140	397.439
58	486569.533	4579155.971	397.349
59	486570.004	4579153.244	397.529
60	486566.904	4579152.526	397.329
61	486567.607	4579155.508	397.179
62	486565.448	4579155.541	397.199
63	486563.536	4579156.224	397.169
64	486561.987	4579157.011	397.268
65	486559.366	4579157.368	396.978
66	486560.401	4579158.671	397.088
67	486560.221	4579160.352	397.679
68	486556.032	4579157.410	396.998
69	486553.312	4579153.359	397.617
70	486552.957	4579151.665	396.727
71	486553.565	4579150.425	397.047
72	486550.828	4579145.596	396.966
73	486551.637	4579141.579	396.826
74	486557.476	4579135.442	397.096
75	486563.611	4579131.998	397.537
76	486566.988	4579130.570	398.027
77	486571.522	4579128.071	397.977
78	486573.449	4579128.627	398.227
79	486574.661	4579128.957	398.247
80	486572.557	4579130.614	398.137
81	486572.428	4579132.605	398.198
82	486570.041	4579131.955	398.367
83	486568.720	4579133.523	398.167
84	486567.874	4579132.582	398.307
85	486566.637	4579132.297	398.217
86	486566.455	4579133.931	397.597
87	486564.616	4579135.848	397.557
88	486561.653	4579137.132	397.507
89	486562.633	4579140.434	397.477
90	486565.403	4579142.376	397.488
91	486559.324	4579142.798	397.317
92	486558.214	4579146.360	397.137
93	486556.839	4579150.031	397.117
94	486561.458	4579149.946	397.218
95	486565.481	4579147.760	397.458
96	486570.656	4579148.872	397.579
97	486574.533	4579145.734	397.799
98	486574.401	4579142.972	397.839
99	486574.711	4579142.020	398.149
100	486578.463	4579140.241	398.539
101	486578.317	4579143.867	398.139
102	486580.123	4579143.501	398.629
103	486579.829	4579145.973	398.179
104	486580.832	4579146.475	398.249
105	486581.807	4579145.596	399.220
106	486580.877	4579145.012	399.169
107	486581.982	4579145.527	398.410
108	486580.674	4579144.404	398.669
109	486581.822	4579142.457	399.059
110	486578.433	4579141.643	398.519
111	486582.065	4579148.979	397.690
112	486582.066	4579147.688	398.070
113	486583.506	4579148.127	397.950
114	486585.137	4579148.335	398.280
115	486585.158	4579147.349	398.420
116	486586.705	4579150.225	398.010
117	486585.920	4579151.937	397.750
118	486584.889	4579151.946	397.340
119	486587.558	4579152.055	397.291
120	486589.975	4579139.247	398.780
121	486595.989	4579140.238	397.690
122	486598.420	4579136.982	398.020
123	486597.193	4579137.730	397.960
124	486594.428	4579136.089	398.590
125	486591.431	4579134.624	398.840
126	486590.981	4579136.365	398.840
127	486587.173	4579133.939	398.889
128	486586.734	4579131.465	398.849
129	486583.389	4579128.819	398.528
130	486583.264	4579128.208	398.058
131	486582.084	4579129.519	398.448
132	486581.265	4579129.702	398.398
133	486580.369	4579129.792	397.988
134	486580.569	4579130.442	398.398
135	486579.442	4579133.602	398.338
136	486581.889	4579134.750	398.679
137	486575.732	4579139.441	398.288
138	486575.146	4579139.069	398.028
139	486573.511	4579141.473	397.798
140	486569.786	4579139.496	397.788
141	486596.709	4579135.358	398.440
142	486597.780	4579136.163	398.120
143	486599.091	4579134.494	397.890
144	486597.649	4579133.858	398.430
145	486596.819	4579131.355	398.840
146	486596.357	4579128.230	399.030
147	486593.087	4579126.462	398.829
148	486587.744	4579126.009	398.898
149	486585.267	4579125.347	398.318
150	486584.729	4579125.108	397.778
151	486585.946	4579119.494	397.218
152	486586.395	4579119.728	397.778
153	486589.549	4579114.156	398.098
154	486588.822	4579113.940	397.198
155	486590.431	4579109.824	396.847
156	486591.231	4579110.181	397.838
157	486591.907	4579104.661	397.467
158	486591.134	4579104.607	396.587
159	486591.559	4579097.625	397.097
160	486590.591	4579097.828	396.256
161	486589.109	4579088.660	396.646
162	486588.658	4579089.053	395.816
163	486585.225	4579085.581	396.295
164	486585.192	4579086.081	395.845
165	486584.050	4579087.126	395.275
166	486581.434	4579084.166	394.944
167	486581.613	4579083.307	395.124
168	486581.583	4579082.316	395.684
169	486578.889	4579078.015	395.324
170	486578.310	4579078.487	394.664
171	486577.742	4579075.313	394.673
172	486578.213	4579075.282	395.053
173	486577.348	4579068.552	394.353
174	486577.665	4579057.140	392.362
175	486583.042	4579050.827	392.592
176	486585.053	4579050.519	393.252
177	486586.824	4579051.210	393.362
178	486591.366	4579059.688	395.343
179	486587.793	4579063.892	395.533
180	486586.157	4579067.479	395.593
181	486586.401	4579071.081	396.414
182	486593.078	4579070.032	397.374
183	486592.075	4579067.760	396.894
184	486591.121	4579077.085	397.785
185	486596.101	4579077.961	398.465
186	486597.786	4579086.051	398.776
187	486598.521	4579092.657	398.747
188	486595.402	4579093.549	398.177
189	486600.916	4579105.539	399.448
190	486600.473	4579113.568	399.759
191	486598.660	4579115.279	399.629
192	486595.712	4579114.598	399.168
193	486599.647	4579122.547	399.919
194	486602.925	4579126.900	399.340
195	486606.543	4579130.778	397.781
196	486607.552	4579133.898	396.261
197	486613.288	4579138.452	393.042
198	486618.602	4579143.378	389.653
199	486609.575	4579154.022	389.213
200	486601.223	4579150.292	393.202
201	486593.398	4579148.332	396.361
202	486582.706	4579161.527	396.851
203	486584.132	4579162.737	396.061
204	486589.397	4579166.640	393.142
205	486597.635	4579171.924	388.883
206	486596.896	4579171.723	389.303
207	486590.994	4579184.195	388.564
208	486583.551	4579180.792	391.773
209	486576.737	4579174.384	395.211
210	486569.204	4579178.873	395.471
211	486569.407	4579181.112	394.741
212	486569.992	4579189.145	392.522
213	486571.709	4579197.179	389.843
214	486558.852	4579201.671	390.022
215	486556.331	4579193.387	392.791
216	486554.915	4579186.778	394.620
217	486555.911	4579184.003	395.240
218	486561.093	4579182.030	395.550
219	486552.731	4579183.452	395.260
220	486549.006	4579180.616	395.329
221	486548.163	4579181.855	394.859
222	486539.748	4579187.294	392.579
223	486532.880	4579193.013	390.439
224	486524.679	4579179.874	389.887
225	486532.312	4579176.738	391.817
226	486539.811	4579174.141	393.638
227	486543.002	4579173.462	394.458
228	486545.576	4579177.843	394.799
229	486542.463	4579166.942	394.487
230	486539.765	4579165.584	393.827
231	486531.122	4579163.817	391.706
232	486521.185	4579162.397	389.415
233	486520.495	4579149.605	388.984
234	486530.042	4579150.976	391.085
235	486540.769	4579155.968	393.486
236	486544.222	4579157.854	394.437
237	486542.611	4579163.400	394.627
238	486549.855	4579152.941	395.307
239	486549.612	4579149.299	395.007
240	486547.179	4579147.313	394.126
241	486546.934	4579142.982	393.906
242	486544.776	4579143.378	393.396
243	486533.227	4579141.255	391.054
244	486523.432	4579138.550	389.293
245	486546.246	4579134.138	393.135
246	486553.187	4579133.527	393.776
247	486560.651	4579128.325	394.376
248	486560.585	4579124.626	393.656
249	486566.421	4579118.504	393.936
250	486570.473	4579124.360	395.737
251	486572.852	4579124.911	395.957
252	486573.679	4579122.459	396.127
253	486577.492	4579116.371	396.097
254	486579.704	4579110.152	395.636
255	486580.402	4579104.668	394.946
256	486579.884	4579100.105	394.286
257	486577.971	4579093.285	393.875
258	486573.340	4579091.180	393.054
259	486570.062	4579090.635	392.444
260	486571.519	4579091.869	392.634
261	486571.698	4579095.700	392.404
262	486568.729	4579094.766	391.844
263	486566.069	4579098.544	391.074
264	486566.224	4579098.910	391.484
265	486570.013	4579103.509	392.735
266	486566.184	4579114.219	393.285
267	486561.437	4579112.481	392.065
268	486560.126	4579108.333	391.174
269	486559.659	4579107.437	390.334
270	486558.301	4579107.913	390.174
271	486558.723	4579108.553	390.854
272	486556.683	4579108.823	390.434
273	486555.898	4579108.208	389.894
274	486554.042	4579111.456	389.744
275	486554.109	4579112.036	390.474
276	486556.140	4579116.251	391.625
277	486553.632	4579121.246	391.985
278	486550.106	4579114.241	390.194
279	486549.946	4579113.763	389.424
280	486546.042	4579113.798	389.103
281	486544.940	4579114.272	389.623
282	486541.567	4579115.536	389.093
283	486534.706	4579118.033	388.743
284	486534.120	4579122.375	389.503
285	486531.526	4579126.188	389.503
286	486526.557	4579127.781	389.183
287	486521.975	4579134.702	388.933
288	486515.680	4579139.008	388.102
289	486510.599	4579145.027	387.102
290	486505.773	4579143.747	386.142
291	486501.444	4579142.607	385.871
292	486500.264	4579140.912	385.331
293	486508.077	4579131.580	387.521
294	486501.532	4579131.285	386.060
295	486494.540	4579135.693	384.880
296	486490.410	4579138.462	384.080
297	486486.447	4579139.434	383.410
298	486484.360	4579136.844	383.169
299	486483.439	4579135.963	382.369
300	486483.247	4579127.410	383.048
301	486482.405	4579127.329	381.698
302	486487.515	4579127.166	383.759
303	486494.558	4579128.145	385.029
304	486500.419	4579119.983	384.979
305	486505.777	4579112.089	384.589
306	486498.755	4579107.334	383.448
307	486490.415	4579108.216	382.587
308	486480.168	4579108.659	381.856
309	486479.483	4579108.550	381.376
310	486479.682	4579107.950	381.636
311	486478.322	4579107.632	381.616
312	486478.460	4579107.663	381.496
313	486477.257	4579103.624	381.506
314	486477.325	4579103.433	381.366
315	486464.272	4579106.531	381.005
316	486464.176	4579106.489	380.125
317	486464.374	4579107.682	381.005
318	486464.334	4579107.756	380.225
319	486464.485	4579108.692	380.275
320	486464.662	4579108.661	381.015
321	486464.681	4579108.589	380.455
322	486464.635	4579107.731	380.415
323	486465.338	4579107.467	381.035
324	486465.734	4579108.237	381.015
325	486464.896	4579109.875	381.015
326	486465.093	4579110.410	380.955
327	486465.005	4579110.668	380.325
328	486465.032	4579110.846	380.385
329	486461.996	4579107.271	380.165
330	486461.995	4579107.077	379.924
331	486447.193	4579110.448	379.733
332	486447.139	4579110.348	378.623
333	486448.760	4579116.557	379.804
334	486448.718	4579116.654	378.804
335	486448.019	4579113.927	379.784
336	486447.625	4579112.346	379.734
337	486446.216	4579112.836	378.603
338	486446.573	4579114.187	378.644
339	486449.079	4579117.407	378.744
340	486463.312	4579113.876	379.715
341	486463.222	4579113.136	380.285
342	486463.401	4579113.203	379.625
343	486444.223	4579111.507	378.333
344	486433.876	4579123.618	377.413
345	486426.499	4579121.373	377.452
346	486425.461	4579114.787	377.132
347	486423.587	4579105.697	376.881
348	486422.054	4579098.497	376.720
349	486420.455	4579089.450	376.429
350	486426.413	4579089.626	376.450
351	486429.100	4579102.146	376.801
352	486432.469	4579096.936	376.651
353	486434.393	4579096.012	377.031
354	486435.063	4579097.249	377.071
355	486439.307	4579102.903	377.462
356	486440.915	4579109.379	377.693
357	486443.953	4579111.715	378.333
358	486446.689	4579109.486	378.493
359	486447.787	4579114.953	378.834
360	486437.924	4579117.472	377.673
361	486438.561	4579120.444	377.783
362	486447.835	4579118.293	378.644
363	486433.081	4579112.423	377.112
364	486429.825	4579097.607	376.641
365	486428.329	4579097.964	376.640
366	486425.582	4579085.823	376.329
367	486446.273	4579107.387	378.283
368	486459.217	4579091.393	379.823
369	486457.102	4579088.067	379.902
370	486461.335	4579097.085	379.844
371	486463.681	4579101.681	379.934
372	486464.450	4579104.450	380.025
373	486480.950	4579101.456	381.606
374	486481.651	4579097.638	381.596
375	486484.218	4579090.439	381.675
376	486487.694	4579087.422	381.915
377	486495.268	4579086.869	382.656
378	486503.570	4579083.641	383.057
379	486506.755	4579091.740	383.558
380	486507.002	4579097.663	383.768
381	486506.199	4579100.597	383.798
382	486505.571	4579105.848	383.829
383	486529.551	4579087.193	386.430
384	486529.749	4579092.631	385.980
385	486529.447	4579096.399	385.980
386	486529.487	4579098.690	385.900
387	486529.616	4579101.416	386.261
388	486528.820	4579103.715	386.481
389	486541.185	4579104.043	388.472
390	486542.107	4579102.164	387.742
391	486542.608	4579098.297	387.602
392	486542.652	4579095.480	387.672
393	486542.440	4579093.289	387.701
394	486541.238	4579086.438	388.171
395	486543.634	4579083.720	389.051
396	486551.757	4579079.188	390.391
397	486553.642	4579079.617	390.171
398	486553.999	4579073.645	390.071
399	486556.124	4579069.628	390.541
400	486562.867	4579065.980	391.111
401	486568.539	4579062.438	391.651
402	486571.053	4579065.340	392.702
403	486570.999	4579067.705	393.562
404	486562.834	4579070.060	392.301
405	486562.231	4579069.610	391.591
406	486565.026	4579074.330	392.652
407	486560.246	4579075.143	392.342
408	486558.487	4579075.501	391.451
409	486558.147	4579080.282	391.442
410	486559.221	4579081.264	392.092
411	486557.940	4579084.022	391.652
412	486557.030	4579083.598	390.952
413	486559.253	4579086.180	391.252
414	486561.241	4579089.681	391.223
415	486562.163	4579091.382	391.223
416	486558.140	4579096.077	390.523
417	486557.241	4579095.700	389.943
418	486552.543	4579101.451	389.753
419	486551.129	4579098.488	388.973
420	486549.018	4579096.455	388.492
421	486548.199	4579093.584	388.582
422	486547.731	4579091.865	388.812
423	486571.858	4579087.193	393.414
424	486572.070	4579084.202	393.663
425	486573.538	4579081.380	393.673
426	486573.689	4579077.083	393.613
427	486578.978	4579082.594	394.564
428	486577.324	4579085.476	394.514
429	486574.251	4579087.551	394.334
430	486580.124	4579092.329	395.045
431	486582.234	4579092.622	395.335
432	486585.891	4579092.578	395.616
433	486587.417	4579092.398	395.706
434	486590.148	4579101.781	396.127
435	486588.848	4579102.460	396.287
436	486586.443	4579103.025	396.276
437	486583.083	4579102.231	396.136
438	486582.619	4579108.091	396.946
439	486583.472	4579108.912	396.747
440	486584.490	4579109.472	396.727
441	486587.640	4579111.006	396.827
442	486588.213	4579111.326	396.767
443	486584.683	4579121.975	397.268
444	486583.238	4579122.188	397.358
445	486580.799	4579121.899	397.387
446	486578.795	4579121.255	397.267
447	486577.767	4579120.943	397.437
448	486576.279	4579126.065	397.637
449	486577.451	4579127.352	397.668
450	486579.553	4579129.073	397.828
451	486412.753	4579021.546	374.300
452	486406.271	4579022.272	374.292
453	486404.759	4579022.014	374.267
454	486400.541	4579033.812	375.091
455	486405.820	4579038.484	374.918
456	486410.226	4579041.474	374.897
457	486416.584	4579041.399	374.984
458	486420.005	4579058.532	375.497
459	486411.540	4579060.408	375.493
460	486416.844	4579084.488	376.350
461	486425.174	4579083.221	376.217
462	486427.370	4579094.155	376.555
463	486419.038	4579095.959	376.652
464	486422.018	4579111.290	377.101
465	486430.783	4579109.680	376.991
466	486434.025	4579123.976	377.405
467	486424.415	4579126.097	377.687
468	486423.059	4579127.974	377.786
469	486421.609	4579129.366	377.884
470	486420.115	4579130.340	377.964
471	486418.361	4579131.035	378.122
472	486416.279	4579131.164	378.288
473	486414.340	4579130.759	378.405
474	486413.454	4579130.099	378.436
475	486405.965	4579120.470	378.298
476	486399.608	4579112.019	378.224
477	486392.548	4579093.524	377.000
478	486393.171	4579092.117	376.879
479	486403.463	4579087.210	376.742
480	486405.457	4579086.975	376.717
481	486407.523	4579087.533	376.719
482	486413.532	4579091.566	376.700
483	486415.943	4579085.203	376.404
484	486385.784	4579086.455	377.074
485	486385.031	4579090.505	377.468
486	486384.661	4579091.189	377.594
487	486383.908	4579091.237	377.665
488	486375.220	4579079.734	377.486
489	486364.653	4579065.626	377.267
490	486365.481	4579064.250	377.180
491	486373.775	4579067.160	376.940
492	486380.390	4579071.569	376.860
493	486384.517	4579081.077	376.940
494	486355.714	4579070.443	377.517
495	486365.120	4579083.192	377.707
496	486377.065	4579099.143	377.984
497	486397.408	4579126.246	378.481
498	486401.180	4579131.201	378.606
499	486405.132	4579136.259	378.675
500	486418.561	4579153.762	378.792
501	486440.551	4579147.589	378.336
502	486446.197	4579163.630	378.632
503	486433.488	4579173.334	378.893
504	486450.677	4579195.686	378.918
505	486459.759	4579192.780	378.851
506	486475.296	4579214.432	378.390
507	486469.543	4579219.557	378.509
508	486482.067	4579235.192	377.814
509	486489.043	4579230.696	377.501
510	486504.647	4579248.140	376.313
511	486499.175	4579254.223	376.462
512	486517.843	4579272.541	374.832
513	486523.599	4579266.969	374.661
514	486527.211	4579270.484	374.372
515	486533.453	4579262.740	374.022
516	486537.456	4579265.130	374.052
517	486532.129	4579275.344	373.998
518	486543.591	4579285.935	373.107
519	486538.652	4579291.673	373.089
520	486552.599	4579304.676	371.970
521	486558.201	4579299.490	371.923
522	486576.092	4579315.938	370.563
523	486570.943	4579321.339	370.559
524	486589.811	4579338.770	369.062
525	486596.183	4579334.327	369.059
526	486615.599	4579353.219	367.824
527	486609.453	4579358.569	367.587
528	486538.273	4579256.901	374.190
529	486540.595	4579259.059	374.285
530	486548.753	4579252.549	374.991
531	486547.266	4579249.514	375.095
532	486556.326	4579244.892	376.188
533	486558.036	4579247.059	376.145
534	486567.882	4579241.212	377.637
535	486566.743	4579238.756	377.661
536	486579.095	4579229.792	379.547
537	486580.635	4579231.673	379.471
538	486585.952	4579227.650	379.583
539	486585.330	4579224.615	379.647
540	486600.989	4579214.196	378.736
541	486603.105	4579216.160	378.783
542	486613.324	4579205.005	377.646
543	486611.291	4579202.964	377.693
544	486630.816	4579174.081	376.473
545	486633.705	4579175.845	376.410
546	486645.470	4579163.735	376.498
547	486644.200	4579160.894	376.595
548	486656.658	4579146.995	377.443
549	486658.776	4579147.700	377.370
550	486663.468	4579134.548	379.440
551	486660.712	4579134.269	379.534
552	486657.268	4579118.202	382.577
553	486659.687	4579117.667	382.493
554	486660.170	4579094.272	384.199
555	486662.253	4579094.972	384.027
556	486655.907	4579094.192	386.156
557	486653.840	4579104.612	386.146
558	486654.089	4579111.226	385.726
559	486654.526	4579122.193	384.092
560	486652.735	4579122.089	384.830
561	486649.315	4579132.007	383.912
562	486638.919	4579142.962	383.512
563	486630.720	4579153.448	382.530
564	486618.427	4579168.744	382.211
565	486604.355	4579192.079	382.311
566	486595.288	4579210.259	382.363
567	486575.380	4579214.735	383.991
568	486575.361	4579225.670	380.713
569	486575.255	4579228.053	379.800
570	486575.175	4579230.694	379.646
571	486563.266	4579233.145	380.190
572	486563.169	4579230.679	380.183
573	486562.170	4579220.323	383.607
574	486550.375	4579220.374	383.840
575	486548.458	4579230.874	380.231
576	486548.233	4579233.932	380.172
577	486536.275	4579233.738	380.153
578	486536.601	4579230.937	380.088
579	486537.155	4579221.862	383.084
580	486523.411	4579218.022	383.160
581	486518.761	4579224.018	380.601
582	486517.415	4579226.185	380.576
583	486503.576	4579219.103	380.716
584	486504.204	4579216.679	380.790
585	486507.468	4579207.488	383.651
586	486497.172	4579197.381	383.714
587	486489.430	4579202.266	381.744
588	486484.334	4579205.671	381.173
589	486482.357	4579207.150	381.139
590	486472.300	4579194.681	380.058
591	486474.386	4579192.914	380.221
592	486475.561	4579191.913	381.097
593	486463.407	4579176.859	379.419
594	486460.746	4579178.389	379.168
595	486453.226	4579175.176	378.644
596	486453.027	4579172.316	378.629
597	486465.262	4579172.015	380.814
598	486472.017	4579160.642	381.575
599	486480.435	4579160.264	382.691
600	486483.663	4579142.273	383.091
601	486485.507	4579132.960	383.370
602	486483.085	4579110.190	382.299
603	486480.249	4579083.968	381.405
604	486491.053	4579081.369	381.620
605	486492.476	4579075.299	381.223
606	486499.827	4579072.695	381.867
607	486500.867	4579083.016	382.651
608	486509.603	4579086.236	383.829
609	486516.258	4579085.275	384.650
610	486514.998	4579080.818	384.478
611	486509.292	4579072.473	382.954
612	486519.841	4579069.524	384.122
613	486521.818	4579074.757	384.886
614	486523.511	4579086.321	385.665
615	486536.177	4579083.902	387.659
616	486536.442	4579078.610	387.752
617	486533.949	4579065.266	385.760
618	486547.586	4579062.299	387.814
619	486551.020	4579072.378	389.709
620	486552.881	4579080.859	390.555
621	486561.224	4579077.644	392.351
622	486560.474	4579072.496	392.118
623	486558.099	4579063.017	389.933
624	486555.682	4579056.403	388.479
625	486566.105	4579048.648	389.643
626	486569.468	4579056.862	390.912
627	486572.191	4579064.812	392.786
628	486584.524	4579070.442	395.929
629	486585.712	4579056.538	393.676
630	486593.035	4579048.914	394.531
631	486597.900	4579064.329	397.126
632	486600.368	4579071.426	398.718
633	486614.968	4579066.019	399.829
634	486609.599	4579051.782	398.232
635	486603.109	4579038.368	397.704
636	486610.283	4579028.366	399.666
637	486618.873	4579040.677	400.799
638	486624.284	4579051.667	400.828
639	486634.750	4579035.959	402.584
640	486632.462	4579044.207	401.730
641	486627.325	4579058.387	400.625
642	486622.235	4579057.541	400.377
643	486612.611	4579067.830	399.851
644	486615.156	4579070.604	400.599
645	486624.088	4579076.230	400.581
646	486620.647	4579090.044	400.352
647	486617.138	4579089.410	400.780
648	486611.077	4579087.950	400.824
649	486604.056	4579085.394	399.725
650	486598.891	4579100.320	398.889
651	486605.075	4579102.252	400.169
652	486610.654	4579104.530	400.610
653	486615.093	4579106.652	400.332
654	486618.158	4579108.681	399.374
655	486611.702	4579120.545	399.176
656	486608.478	4579118.808	400.030
657	486605.499	4579116.932	400.328
658	486600.221	4579114.792	399.807
659	486594.314	4579121.359	398.795
660	486598.675	4579124.727	399.604
661	486604.370	4579127.706	398.806
662	486641.705	4579088.047	392.949
663	486637.886	4579108.719	392.218
664	486633.413	4579118.844	392.352
665	486625.017	4579133.000	391.200
666	486614.443	4579148.194	389.342
667	486602.488	4579167.578	388.055
668	486596.190	4579178.256	387.940
669	486587.663	4579189.138	388.156
670	486577.544	4579195.245	389.323
671	486569.796	4579199.032	389.599
672	486558.284	4579203.674	389.364
673	486547.632	4579203.071	389.633
674	486538.742	4579200.205	389.890
675	486530.220	4579194.006	389.719
676	486524.567	4579184.547	389.528
677	486521.632	4579168.844	389.455
678	486523.018	4579155.746	389.707
679	486524.011	4579149.119	389.690
680	486524.312	4579137.016	389.364
681	486523.875	4579130.885	389.175
682	486520.866	4579113.242	386.137
